{
	"required": true,
	"minVersion": "0.8",
	"package": "dev.vriska.owndevices.mixin",
	"compatibilityLevel": "JAVA_17",
	"mixins": [],
	"client": [
		"SoundSystemMixin"
	],
	"injectors": {
		"defaultRequire": 1
	}
}
